\begin{thebibliography}{1}

\bibitem{Chuasuwan}
Chuasuwan A et~al.
\newblock Thailand renal replacement therapy year 2015.

\bibitem{Lee}
Lee S et~al.
\newblock Dietary and fluid compliance in chinese hemodialysis patients.
\newblock Int J Nurs Stud. 2002;39(7):695-704.

\bibitem{Sumnak}
สำนักงานหลักประกันสุขภาพแห่งชาติ.
\newblock
  รายงานการสร้างหลักประกันสุขภาพถ้วนหน้าประจำปี
  2554.
\newblock กรุงเทพมหานคร:
  สำนักนโยบายและแผน
  สำนักงานหลักประกันสุขภาพแห่งชาติ.
  2555.

\bibitem{Konkan}
กลุ่มภารกิจด้านการพยาบาล
  โรงพยาบาลขอนแก่น.
\newblock
  คู่มือบันทึกทางการพยาบาล
  (ผู้ป่วยใน), 2562.

\end{thebibliography}
