\BOOKMARK [1][-]{table.caption.2}{\376\377\016\032\016\027\016\004\016\061\016\024\016\042\016\110\016\055}{}% 1
\BOOKMARK [1][-]{table.caption.3}{\376\377\000A\000b\000s\000t\000r\000a\000c\000t}{}% 2
\BOOKMARK [1][-]{chapter*.4}{\376\377\016\001\016\064\016\025\016\025\016\064\016\001\016\043\016\043\016\041\016\033\016\043\016\060\016\001\016\062\016\050}{}% 3
\BOOKMARK [1][-]{chapter*.5}{\376\377\016\052\016\062\016\043\016\032\016\061\016\015\016\043\016\071\016\033}{}% 4
\BOOKMARK [1][-]{chapter*.6}{\376\377\016\052\016\062\016\043\016\032\016\061\016\015\016\025\016\062\016\043\016\062\016\007}{}% 5
\BOOKMARK [1][-]{chapter*.7}{\376\377\016\052\016\061\016\015\016\045\016\061\016\001\016\051\016\023\016\114\016\101\016\045\016\060\016\004\016\063\016\042\016\110\016\055}{}% 6
\BOOKMARK [0][-]{chapter.1}{\376\377\016\032\016\027\016\031\016\063}{}% 7
\BOOKMARK [1][-]{section.1.1}{\376\377\016\027\016\065\016\110\016\041\016\062\016\101\016\045\016\060\016\004\016\047\016\062\016\041\016\052\016\063\016\004\016\061\016\015}{chapter.1}% 8
\BOOKMARK [1][-]{section.1.2}{\376\377\016\047\016\061\016\025\016\026\016\070\016\033\016\043\016\060\016\052\016\007\016\004\016\114}{chapter.1}% 9
\BOOKMARK [1][-]{section.1.3}{\376\377\016\002\016\055\016\032\016\100\016\002\016\025\016\001\016\062\016\043\016\024\016\063\016\100\016\031\016\064\016\031\016\007\016\062\016\031}{chapter.1}% 10
\BOOKMARK [1][-]{section.1.4}{\376\377\016\002\016\061\016\111\016\031\016\025\016\055\016\031\016\001\016\062\016\043\016\024\016\063\016\100\016\031\016\064\016\031\016\007\016\062\016\031}{chapter.1}% 11
\BOOKMARK [1][-]{section.1.5}{\376\377\016\034\016\045\016\027\016\065\016\110\016\004\016\062\016\024\016\047\016\110\016\062\016\010\016\060\016\104\016\024\016\111\016\043\016\061\016\032}{chapter.1}% 12
\BOOKMARK [1][-]{section.1.6}{\376\377\016\025\016\062\016\043\016\062\016\007\016\001\016\062\016\043\016\024\016\063\016\100\016\031\016\064\016\031\016\007\016\062\016\031}{chapter.1}% 13
\BOOKMARK [0][-]{chapter.2}{\376\377\016\047\016\043\016\043\016\023\016\001\016\043\016\043\016\041\016\101\016\045\016\060\016\007\016\062\016\031\016\047\016\064\016\010\016\061\016\042\016\027\016\065\016\110\016\100\016\001\016\065\016\110\016\042\016\047\016\002\016\111\016\055\016\007}{}% 14
\BOOKMARK [1][-]{section.2.1}{\376\377\016\102\016\043\016\004\016\104\016\025\016\047\016\062\016\042\016\100\016\043\016\067\016\111\016\055\016\043\016\061\016\007}{chapter.2}% 15
\BOOKMARK [1][-]{section.2.2}{\376\377\016\001\016\062\016\043\016\043\016\061\016\001\016\051\016\062\016\034\016\071\016\111\016\033\016\110\016\047\016\042\016\102\016\043\016\004\016\104\016\025\016\100\016\043\016\067\016\111\016\055\016\043\016\061\016\007\016\043\016\060\016\042\016\060\016\052\016\070\016\024\016\027\016\111\016\062\016\042}{chapter.2}% 16
\BOOKMARK [1][-]{section.2.3}{\376\377\016\001\016\062\016\043\016\033\016\043\016\060\016\042\016\070\016\001\016\025\016\114\016\103\016\012\016\111\016\101\016\055\016\033\016\036\016\045\016\064\016\100\016\004\016\012\016\061\016\031\016\032\016\031\016\055\016\070\016\033\016\001\016\043\016\023\016\114\016\036\016\001\016\036\016\062\016\103\016\031\016\001\016\062\016\043\016\032\016\061\016\031\016\027\016\066\016\001\016\002\016\111\016\055\016\041\016\071\016\045\016\002\016\055\016\007\016\034\016\071\016\111\016\033\016\110\016\047\016\042}{chapter.2}% 17
\BOOKMARK [0][-]{chapter.3}{\376\377\016\001\016\062\016\043\016\024\016\063\016\100\016\031\016\064\016\031\016\007\016\062\016\031}{}% 18
\BOOKMARK [1][-]{section.3.1}{\376\377\016\055\016\055\016\001\016\101\016\032\016\032\016\052\016\110\016\047\016\031\016\025\016\110\016\055\016\033\016\043\016\060\016\052\016\062\016\031\016\001\016\061\016\032\016\034\016\071\016\111\016\103\016\012\016\111\000\040\000\050\000u\000s\000e\000r\000\040\000i\000n\000t\000e\000r\000f\000a\000c\000e\000,\000\040\000U\000I\000\051\000\040\016\101\016\045\016\060\016\033\016\043\016\060\016\052\016\032\016\001\016\062\016\043\016\023\016\114\016\002\016\055\016\007\016\034\016\071\016\111\016\103\016\012\016\111\000\040\000\050\000u\000s\000e\000r\000\040\000e\000x\000p\000e\000r\000i\000e\000n\000c\000e\000,\000\040\000U\000X\000\051\000\040\016\002\016\055\016\007\016\101\016\055\016\033\016\036\016\045\016\064\016\100\016\004\016\012\016\061\016\031}{chapter.3}% 19
\BOOKMARK [1][-]{section.3.2}{\376\377\016\055\016\055\016\001\016\101\016\032\016\032\016\020\016\062\016\031\016\002\016\111\016\055\016\041\016\071\016\045}{chapter.3}% 20
\BOOKMARK [1][-]{section.3.3}{\376\377\016\036\016\061\016\022\016\031\016\062\016\101\016\055\016\033\016\036\016\045\016\064\016\100\016\004\016\012\016\061\016\031}{chapter.3}% 21
\BOOKMARK [0][-]{chapter.4}{\376\377\016\034\016\045\016\001\016\062\016\043\016\024\016\063\016\100\016\031\016\064\016\031\016\007\016\062\016\031}{}% 22
\BOOKMARK [1][-]{section.4.1}{\376\377\016\001\016\062\016\043\016\027\016\063\016\007\016\062\016\031\016\002\016\055\016\007\016\101\016\055\016\033\016\036\016\045\016\064\016\100\016\004\016\012\016\061\016\031}{chapter.4}% 23
\BOOKMARK [0][-]{chapter.5}{\376\377\016\052\016\043\016\070\016\033\016\102\016\004\016\043\016\007\016\007\016\062\016\031}{}% 24
\BOOKMARK [1][-]{section.5.1}{\376\377\016\052\016\043\016\070\016\033\016\034\016\045\016\102\016\004\016\043\016\007\016\007\016\062\016\031}{chapter.5}% 25
\BOOKMARK [1][-]{section.5.2}{\376\377\016\055\016\070\016\033\016\052\016\043\016\043\016\004\016\103\016\031\016\001\016\062\016\043\016\024\016\063\016\100\016\031\016\064\016\031\016\007\016\062\016\031}{chapter.5}% 26
\BOOKMARK [1][-]{section.5.3}{\376\377\016\001\016\062\016\043\016\031\016\063\016\041\016\062\016\036\016\061\016\022\016\031\016\062\016\025\016\110\016\055\016\103\016\031\016\055\016\031\016\062\016\004\016\025}{chapter.5}% 27
\BOOKMARK [1][-]{Item.151}{\376\377\016\043\016\062\016\042\016\001\016\062\016\043\016\055\016\111\016\062\016\007\016\055\016\064\016\007}{chapter.5}% 28
\BOOKMARK [1][-]{appendix.A}{\376\377\016\040\016\062\016\004\016\034\016\031\016\047\016\001\000\040\016\001\000:\000\040\016\047\016\064\016\030\016\065\016\001\016\062\016\043\016\025\016\064\016\024\016\025\016\061\016\111\016\007\016\052\016\063\016\053\016\043\016\061\016\032\016\034\016\071\016\111\016\024\016\071\016\101\016\045\016\043\016\060\016\032\016\032}{chapter.5}% 29
\BOOKMARK [1][-]{section.A.1}{\376\377\016\025\016\064\016\024\016\025\016\061\016\111\016\007\016\020\016\062\016\031\016\002\016\111\016\055\016\041\016\071\016\045\000\040\000M\000y\000S\000Q\000L}{chapter.5}% 30
\BOOKMARK [1][-]{section.A.2}{\376\377\016\052\016\043\016\111\016\062\016\007\016\020\016\062\016\031\016\002\016\111\016\055\016\041\016\071\016\045\000\040\000H\000e\000m\000o\000d\000i\000a\000l\000y\000s\000i\000s\000\040\000r\000e\000c\000o\000r\000d\000\040\016\101\016\045\016\060\016\052\016\043\016\111\016\062\016\007\016\025\016\062\016\043\016\062\016\007}{chapter.5}% 31
\BOOKMARK [1][-]{section.A.3}{\376\377\016\025\016\064\016\024\016\025\016\061\016\111\016\007\000\040\000N\000o\000d\000e\000J\000S\000\040\016\101\016\045\016\060\000\040\000E\000x\000p\000r\000e\000s\000s\000J\000S}{chapter.5}% 32
\BOOKMARK [1][-]{section.A.4}{\376\377\016\100\016\012\016\067\016\110\016\055\016\041\016\025\016\110\016\055\016\001\016\061\016\032\016\020\016\062\016\031\016\002\016\111\016\055\016\041\016\071\016\045\000\040\016\101\016\045\016\060\016\043\016\061\016\031\000\040\000s\000e\000r\000v\000e\000r\000\040\016\024\016\111\016\047\016\042\000\040\000n\000o\000d\000e}{chapter.5}% 33
