\relax 
\providecommand\hyper@newdestlabel[2]{}
\providecommand\HyperFirstAtBeginDocument{\AtBeginDocument}
\HyperFirstAtBeginDocument{\ifx\hyper@anchor\@undefined
\global\let\oldcontentsline\contentsline
\gdef\contentsline#1#2#3#4{\oldcontentsline{#1}{#2}{#3}}
\global\let\oldnewlabel\newlabel
\gdef\newlabel#1#2{\newlabelxx{#1}#2}
\gdef\newlabelxx#1#2#3#4#5#6{\oldnewlabel{#1}{{#2}{#3}}}
\AtEndDocument{\ifx\hyper@anchor\@undefined
\let\contentsline\oldcontentsline
\let\newlabel\oldnewlabel
\fi}
\fi}
\global\let\hyper@last\relax 
\gdef\HyperFirstAtBeginDocument#1{#1}
\providecommand*\HyPL@Entry[1]{}
\HyPL@Entry{0<</S/r>>}
\@writefile{toc}{\vspace {-0.5cm}}
\@writefile{lof}{\vspace {-0.5cm}}
\@writefile{lot}{\vspace {-0.5cm}}
\@writefile{toc}{\nobreakspace {}\hfill \textnormal  {หน้า\\}\par }
\@writefile{lot}{\nobreakspace {}\hfill \textnormal  {หน้า}\par }
\@writefile{lof}{\nobreakspace {}\hfill \textnormal  {หน้า}\par }
\select@language {thai}
\@writefile{toc}{\select@language {thai}}
\@writefile{lof}{\select@language {thai}}
\@writefile{lot}{\select@language {thai}}
\@writefile{toc}{\contheading  }
\HyPL@Entry{4<</P(\376\377\000\050\0001\000\051)>>}
\@writefile{toc}{\contentsline {section}{บทคัดย่อ}{(1)}{table.caption.2}\protected@file@percent }
\@writefile{toc}{\vspace {\baselineskip }}
\HyPL@Entry{5<</P(\376\377\000\050\0002\000\051)>>}
\@writefile{toc}{\contentsline {section}{Abstract}{(2)}{table.caption.3}\protected@file@percent }
\@writefile{toc}{\vspace {\baselineskip }}
\HyPL@Entry{6<</P(\376\377\000\050\0003\000\051)>>}
\@writefile{toc}{\contentsline {section}{กิตติกรรมประกาศ}{(3)}{chapter*.4}\protected@file@percent }
\@writefile{toc}{\vspace {\baselineskip }}
\HyPL@Entry{7<</P(\376\377\000\050\0004\000\051)>>}
\HyPL@Entry{8<</P(\376\377\000\050\0005\000\051)>>}
\HyPL@Entry{9<</P(\376\377\000\050\0006\000\051)>>}
\@writefile{toc}{\contentsline {section}{สารบัญรูป}{(6)}{chapter*.5}\protected@file@percent }
\@writefile{toc}{\vspace {\baselineskip }}
\HyPL@Entry{10<</P(\376\377\000\050\0007\000\051)>>}
\HyPL@Entry{11<</P(\376\377\000\050\0008\000\051)>>}
\HyPL@Entry{12<</P(\376\377\000\050\0009\000\051)>>}
\@writefile{toc}{\contentsline {section}{สารบัญตาราง}{(9)}{chapter*.6}\protected@file@percent }
\@writefile{toc}{\vspace {\baselineskip }}
\HyPL@Entry{13<</P(\376\377\000\050\0001\0000\000\051)>>}
\@writefile{toc}{\contentsline {section}{สัญลักษณ์และคำย่อ}{(10)}{chapter*.7}\protected@file@percent }
\citation{Konkan}
\HyPL@Entry{14<</S/D>>}
\@writefile{toc}{\addvspace {15\p@ }}
\@writefile{toc}{\contentsline {chapter}{\numberline {1}บทนำ}{1}{chapter.1}\protected@file@percent }
\@writefile{lof}{\addvspace {10\p@ }}
\@writefile{lot}{\addvspace {10\p@ }}
\newlabel{intro}{{1}{1}{บทนำ}{chapter.1}{}}
\@writefile{toc}{\contentsline {section}{\numberline {1.1}ที่มาและความสำคัญ}{1}{section.1.1}\protected@file@percent }
\@writefile{toc}{\contentsline {section}{\numberline {1.2}วัตถุประสงค์}{2}{section.1.2}\protected@file@percent }
\@writefile{toc}{\contentsline {section}{\numberline {1.3}ขอบเขตการดำเนินงาน}{2}{section.1.3}\protected@file@percent }
\@writefile{toc}{\contentsline {section}{\numberline {1.4}ขั้นตอนการดำเนินงาน}{2}{section.1.4}\protected@file@percent }
\@writefile{toc}{\contentsline {section}{\numberline {1.5}ผลที่คาดว่าจะได้รับ}{3}{section.1.5}\protected@file@percent }
\@writefile{toc}{\contentsline {section}{\numberline {1.6}ตารางการดำเนินงาน}{4}{section.1.6}\protected@file@percent }
\@writefile{lot}{\contentsline {table}{\numberline {1.1}{\ignorespaces ตารางการดำเนินโครงงาน\relax }}{4}{table.caption.9}\protected@file@percent }
\providecommand*\caption@xref[2]{\@setref\relax\@undefined{#1}}
\newlabel{fig:table}{{1.1}{4}{ตารางการดำเนินโครงงาน\relax }{table.caption.9}{}}
\@writefile{lot}{\contentsline {table}{\numberline {1.2}{\ignorespaces ตารางการดำเนินโครงงาน (ต่อ)\relax }}{5}{table.caption.10}\protected@file@percent }
\newlabel{fig:table2}{{1.2}{5}{ตารางการดำเนินโครงงาน (ต่อ)\relax }{table.caption.10}{}}
\citation{Sumnak}
\citation{Lee}
\@writefile{toc}{\addvspace {15\p@ }}
\@writefile{toc}{\contentsline {chapter}{\numberline {2}วรรณกรรมและงานวิจัยที่เกี่ยวข้อง}{6}{chapter.2}\protected@file@percent }
\@writefile{lof}{\addvspace {10\p@ }}
\@writefile{lot}{\addvspace {10\p@ }}
\newlabel{literature}{{2}{6}{วรรณกรรมและงานวิจัยที่เกี่ยวข้อง}{chapter.2}{}}
\@writefile{toc}{\contentsline {section}{\numberline {2.1}โรคไตวายเรื้อรัง}{6}{section.2.1}\protected@file@percent }
\@writefile{toc}{\contentsline {section}{\numberline {2.2}การรักษาผู้ป่วยโรคไตเรื้อรังระยะสุดท้าย}{6}{section.2.2}\protected@file@percent }
\citation{Chuasuwan}
\@writefile{toc}{\contentsline {section}{\numberline {2.3}การประยุกต์ใช้แอปพลิเคชันบนอุปกรณ์พกพาในการบันทึกข้อมูลของผู้ป่วย}{7}{section.2.3}\protected@file@percent }
\@writefile{toc}{\addvspace {15\p@ }}
\@writefile{toc}{\contentsline {chapter}{\numberline {3}การดำเนินงาน}{8}{chapter.3}\protected@file@percent }
\@writefile{lof}{\addvspace {10\p@ }}
\@writefile{lot}{\addvspace {10\p@ }}
\newlabel{method}{{3}{8}{การดำเนินงาน}{chapter.3}{}}
\@writefile{toc}{\contentsline {section}{\numberline {3.1}ออกแบบส่วนต่อประสานกับผู้ใช้ (user interface, UI) และประสบการณ์ของผู้ใช้ (user experience, UX) ของแอปพลิเคชัน}{8}{section.3.1}\protected@file@percent }
\@writefile{lof}{\contentsline {figure}{\numberline {3.1}{\ignorespaces แสดง UI ของหน้าการยืนยันตัวตน\relax }}{8}{figure.caption.11}\protected@file@percent }
\newlabel{fig:login}{{3.1}{8}{แสดง UI ของหน้าการยืนยันตัวตน\relax }{figure.caption.11}{}}
\@writefile{lof}{\contentsline {figure}{\numberline {3.2}{\ignorespaces ตัวอย่างผลลัพธ์เมื่อกดปุ่มฟันเฟืองที่มุมล่างขวา\relax }}{9}{figure.caption.12}\protected@file@percent }
\newlabel{fig:serverSet}{{3.2}{9}{ตัวอย่างผลลัพธ์เมื่อกดปุ่มฟันเฟืองที่มุมล่างขวา\relax }{figure.caption.12}{}}
\@writefile{lof}{\contentsline {figure}{\numberline {3.3}{\ignorespaces แสดง UI ของหน้าหลัก\relax }}{10}{figure.caption.13}\protected@file@percent }
\newlabel{fig:home_with_label}{{3.3}{10}{แสดง UI ของหน้าหลัก\relax }{figure.caption.13}{}}
\@writefile{lof}{\contentsline {figure}{\numberline {3.4}{\ignorespaces แสดง UI ของหน้าค้นหา\relax }}{11}{figure.caption.14}\protected@file@percent }
\newlabel{fig:search_with_label}{{3.4}{11}{แสดง UI ของหน้าค้นหา\relax }{figure.caption.14}{}}
\@writefile{lof}{\contentsline {figure}{\numberline {3.5}{\ignorespaces ตัวอย่างการค้นหา\relax }}{12}{figure.caption.15}\protected@file@percent }
\newlabel{fig:search_test}{{3.5}{12}{ตัวอย่างการค้นหา\relax }{figure.caption.15}{}}
\@writefile{lof}{\contentsline {figure}{\numberline {3.6}{\ignorespaces ตัวอย่างเนื้อหาของบันทึกเมื่อเปิดดูบันทึก เรียงลำดับ 1-5 จากการเลื่อนหน้าจอจากบนลงล่าง\relax }}{13}{figure.caption.16}\protected@file@percent }
\newlabel{fig:preview_all}{{3.6}{13}{ตัวอย่างเนื้อหาของบันทึกเมื่อเปิดดูบันทึก เรียงลำดับ 1-5 จากการเลื่อนหน้าจอจากบนลงล่าง\relax }{figure.caption.16}{}}
\@writefile{lof}{\contentsline {figure}{\numberline {3.7}{\ignorespaces ตัวอย่างเมื่อกดเลือกปุ่ม color setting\relax }}{14}{figure.caption.17}\protected@file@percent }
\newlabel{fig:color_set}{{3.7}{14}{ตัวอย่างเมื่อกดเลือกปุ่ม color setting\relax }{figure.caption.17}{}}
\@writefile{lof}{\contentsline {figure}{\numberline {3.8}{\ignorespaces ตัวอย่างเมื่อเลือกสีดำ สีของปุ่มจะเปลี่ยนตามสีที่เลือกเช่นกัน\relax }}{14}{figure.caption.18}\protected@file@percent }
\newlabel{fig:color_set_black}{{3.8}{14}{ตัวอย่างเมื่อเลือกสีดำ สีของปุ่มจะเปลี่ยนตามสีที่เลือกเช่นกัน\relax }{figure.caption.18}{}}
\@writefile{lof}{\contentsline {figure}{\numberline {3.9}{\ignorespaces ตัวอย่างการแสดงข้อความเมื่อผู้ใช้ต้องการจะลบบันทึก\relax }}{15}{figure.caption.19}\protected@file@percent }
\newlabel{fig:delete_from_search}{{3.9}{15}{ตัวอย่างการแสดงข้อความเมื่อผู้ใช้ต้องการจะลบบันทึก\relax }{figure.caption.19}{}}
\@writefile{lof}{\contentsline {figure}{\numberline {3.10}{\ignorespaces แสดงการจำแนกองค์ประกอบของส่วนแสดงรายการของบันทึก\relax }}{16}{figure.caption.20}\protected@file@percent }
\newlabel{fig:home_recordList}{{3.10}{16}{แสดงการจำแนกองค์ประกอบของส่วนแสดงรายการของบันทึก\relax }{figure.caption.20}{}}
\@writefile{lof}{\contentsline {figure}{\numberline {3.11}{\ignorespaces ตัวอย่างตัวเลือกเมื่อผู้ใช้ต้องการจัดเรียงรายการ\relax }}{17}{figure.caption.21}\protected@file@percent }
\newlabel{fig:sort}{{3.11}{17}{ตัวอย่างตัวเลือกเมื่อผู้ใช้ต้องการจัดเรียงรายการ\relax }{figure.caption.21}{}}
\@writefile{lof}{\contentsline {figure}{\numberline {3.12}{\ignorespaces ตัวอย่างการจัดเรียงรายการแบบ Date (old to new)\relax }}{18}{figure.caption.22}\protected@file@percent }
\newlabel{fig:sorted}{{3.12}{18}{ตัวอย่างการจัดเรียงรายการแบบ Date (old to new)\relax }{figure.caption.22}{}}
\@writefile{lof}{\contentsline {figure}{\numberline {3.13}{\ignorespaces ตัวอย่างรายการเมื่อเลื่อนหน้าจอในแนวตั้ง\relax }}{19}{figure.caption.23}\protected@file@percent }
\newlabel{fig:next10}{{3.13}{19}{ตัวอย่างรายการเมื่อเลื่อนหน้าจอในแนวตั้ง\relax }{figure.caption.23}{}}
\@writefile{lof}{\contentsline {figure}{\numberline {3.14}{\ignorespaces ตัวอย่างรายการเมื่อกดปุ่ม Next(10) จากรูป \ref  {fig:next10}\relax }}{20}{figure.caption.24}\protected@file@percent }
\newlabel{fig:next5}{{3.14}{20}{ตัวอย่างรายการเมื่อกดปุ่ม Next(10) จากรูป \ref {fig:next10}\relax }{figure.caption.24}{}}
\@writefile{lof}{\contentsline {figure}{\numberline {3.15}{\ignorespaces ตัวอย่างเมื่อแสดงรายการของบันทึกทั้งหมด\relax }}{20}{figure.caption.25}\protected@file@percent }
\newlabel{fig:allList}{{3.15}{20}{ตัวอย่างเมื่อแสดงรายการของบันทึกทั้งหมด\relax }{figure.caption.25}{}}
\@writefile{lof}{\contentsline {figure}{\numberline {3.16}{\ignorespaces แสดงการจำแนกองค์ประกอบของส่วนเมนูประเภทของบันทึก\relax }}{21}{figure.caption.26}\protected@file@percent }
\newlabel{fig:menu_2}{{3.16}{21}{แสดงการจำแนกองค์ประกอบของส่วนเมนูประเภทของบันทึก\relax }{figure.caption.26}{}}
\@writefile{lof}{\contentsline {figure}{\numberline {3.17}{\ignorespaces ตัวอย่างหน้ากรอกฟอร์มสำหรับฟอร์มประเภท Hemodialysis record หน้าที่ 1\relax }}{23}{figure.caption.27}\protected@file@percent }
\newlabel{fig:form1}{{3.17}{23}{ตัวอย่างหน้ากรอกฟอร์มสำหรับฟอร์มประเภท Hemodialysis record หน้าที่ 1\relax }{figure.caption.27}{}}
\@writefile{lof}{\contentsline {figure}{\numberline {3.18}{\ignorespaces ตัวอย่างหน้ากรอกฟอร์มสำหรับฟอร์มประเภท Hemodialysis record หน้าที่ 1 เมื่อกดที่กล่องคำนำหน้า\relax }}{24}{figure.caption.28}\protected@file@percent }
\newlabel{fig:form1_prefix}{{3.18}{24}{ตัวอย่างหน้ากรอกฟอร์มสำหรับฟอร์มประเภท Hemodialysis record หน้าที่ 1 เมื่อกดที่กล่องคำนำหน้า\relax }{figure.caption.28}{}}
\@writefile{lof}{\contentsline {figure}{\numberline {3.19}{\ignorespaces ตัวอย่างหน้ากรอกฟอร์มสำหรับฟอร์มประเภท Hemodialysis record หน้าที่ 2\relax }}{24}{figure.caption.29}\protected@file@percent }
\newlabel{fig:form2}{{3.19}{24}{ตัวอย่างหน้ากรอกฟอร์มสำหรับฟอร์มประเภท Hemodialysis record หน้าที่ 2\relax }{figure.caption.29}{}}
\@writefile{lof}{\contentsline {figure}{\numberline {3.20}{\ignorespaces ตัวอย่างหน้ากรอกฟอร์มสำหรับฟอร์มประเภท Hemodialysis record หน้าที่ 3\relax }}{25}{figure.caption.30}\protected@file@percent }
\newlabel{fig:form3}{{3.20}{25}{ตัวอย่างหน้ากรอกฟอร์มสำหรับฟอร์มประเภท Hemodialysis record หน้าที่ 3\relax }{figure.caption.30}{}}
\@writefile{lof}{\contentsline {figure}{\numberline {3.21}{\ignorespaces ตัวอย่างหน้ากรอกฟอร์มสำหรับฟอร์มประเภท Hemodialysis record หน้าที่ 4\relax }}{25}{figure.caption.31}\protected@file@percent }
\newlabel{fig:form4}{{3.21}{25}{ตัวอย่างหน้ากรอกฟอร์มสำหรับฟอร์มประเภท Hemodialysis record หน้าที่ 4\relax }{figure.caption.31}{}}
\@writefile{lof}{\contentsline {figure}{\numberline {3.22}{\ignorespaces ตัวอย่างหน้ากรอกฟอร์มสำหรับฟอร์มประเภท Hemodialysis record หน้าที่ 5\relax }}{26}{figure.caption.32}\protected@file@percent }
\newlabel{fig:form5}{{3.22}{26}{ตัวอย่างหน้ากรอกฟอร์มสำหรับฟอร์มประเภท Hemodialysis record หน้าที่ 5\relax }{figure.caption.32}{}}
\@writefile{lof}{\contentsline {figure}{\numberline {3.23}{\ignorespaces ตัวอย่างหน้ากรอกฟอร์มสำหรับฟอร์มประเภท Hemodialysis record หน้าที่ 6\relax }}{26}{figure.caption.33}\protected@file@percent }
\newlabel{fig:form6}{{3.23}{26}{ตัวอย่างหน้ากรอกฟอร์มสำหรับฟอร์มประเภท Hemodialysis record หน้าที่ 6\relax }{figure.caption.33}{}}
\@writefile{lof}{\contentsline {figure}{\numberline {3.24}{\ignorespaces ตัวอย่างหน้ากรอกฟอร์มสำหรับฟอร์มประเภท Hemodialysis record หน้าที่ 7\relax }}{27}{figure.caption.34}\protected@file@percent }
\newlabel{fig:form7}{{3.24}{27}{ตัวอย่างหน้ากรอกฟอร์มสำหรับฟอร์มประเภท Hemodialysis record หน้าที่ 7\relax }{figure.caption.34}{}}
\@writefile{lof}{\contentsline {figure}{\numberline {3.25}{\ignorespaces ตัวอย่างหน้ากรอกฟอร์มสำหรับฟอร์มประเภท Hemodialysis record หน้าที่ 8\relax }}{27}{figure.caption.35}\protected@file@percent }
\newlabel{fig:form9}{{3.25}{27}{ตัวอย่างหน้ากรอกฟอร์มสำหรับฟอร์มประเภท Hemodialysis record หน้าที่ 8\relax }{figure.caption.35}{}}
\@writefile{lof}{\contentsline {figure}{\numberline {3.26}{\ignorespaces ตัวอย่างการจำแนกองค์ประกอบสำหรับกรอกค่าของหน้ากรอกฟอร์มสำหรับฟอร์มประเภท Hemodialysis record หน้าที่ 8\relax }}{28}{figure.caption.36}\protected@file@percent }
\newlabel{fig:form9_full_des}{{3.26}{28}{ตัวอย่างการจำแนกองค์ประกอบสำหรับกรอกค่าของหน้ากรอกฟอร์มสำหรับฟอร์มประเภท Hemodialysis record หน้าที่ 8\relax }{figure.caption.36}{}}
\@writefile{lof}{\contentsline {figure}{\numberline {3.27}{\ignorespaces ตัวอย่างหน้ากรอกฟอร์มสำหรับฟอร์มประเภท Hemodialysis record หน้าที่ 9\relax }}{30}{figure.caption.37}\protected@file@percent }
\newlabel{fig:form10}{{3.27}{30}{ตัวอย่างหน้ากรอกฟอร์มสำหรับฟอร์มประเภท Hemodialysis record หน้าที่ 9\relax }{figure.caption.37}{}}
\@writefile{lof}{\contentsline {figure}{\numberline {3.28}{\ignorespaces ตัวอย่างหน้ากรอกฟอร์มสำหรับฟอร์มประเภท Hemodialysis record หน้าที่ 9 (ต่อ)\relax }}{31}{figure.caption.38}\protected@file@percent }
\newlabel{fig:form10_select}{{3.28}{31}{ตัวอย่างหน้ากรอกฟอร์มสำหรับฟอร์มประเภท Hemodialysis record หน้าที่ 9 (ต่อ)\relax }{figure.caption.38}{}}
\@writefile{lof}{\contentsline {figure}{\numberline {3.29}{\ignorespaces ตัวอย่างหน้ากรอกฟอร์มสำหรับฟอร์มประเภท Hemodialysis record หน้าที่ 9 (ต่อ)\relax }}{31}{figure.caption.39}\protected@file@percent }
\newlabel{fig:form10_selected}{{3.29}{31}{ตัวอย่างหน้ากรอกฟอร์มสำหรับฟอร์มประเภท Hemodialysis record หน้าที่ 9 (ต่อ)\relax }{figure.caption.39}{}}
\@writefile{lof}{\contentsline {figure}{\numberline {3.30}{\ignorespaces ตัวอย่างหน้ากรอกฟอร์มสำหรับฟอร์มประเภท Hemodialysis record หน้าที่ 9 (ต่อ)\relax }}{32}{figure.caption.40}\protected@file@percent }
\newlabel{fig:form10_test}{{3.30}{32}{ตัวอย่างหน้ากรอกฟอร์มสำหรับฟอร์มประเภท Hemodialysis record หน้าที่ 9 (ต่อ)\relax }{figure.caption.40}{}}
\@writefile{lof}{\contentsline {figure}{\numberline {3.31}{\ignorespaces ตัวอย่างหน้ากรอกฟอร์มสำหรับฟอร์มประเภท Hemodialysis record หน้าที่ 10\relax }}{32}{figure.caption.41}\protected@file@percent }
\newlabel{fig:form11}{{3.31}{32}{ตัวอย่างหน้ากรอกฟอร์มสำหรับฟอร์มประเภท Hemodialysis record หน้าที่ 10\relax }{figure.caption.41}{}}
\@writefile{lof}{\contentsline {figure}{\numberline {3.32}{\ignorespaces ตัวอย่างหน้ากรอกฟอร์มสำหรับฟอร์มประเภท Hemodialysis record หน้าที่ 10 หลังจากกดเลือกวันที่แล้ว\relax }}{33}{figure.caption.42}\protected@file@percent }
\newlabel{fig:form11_filled_date}{{3.32}{33}{ตัวอย่างหน้ากรอกฟอร์มสำหรับฟอร์มประเภท Hemodialysis record หน้าที่ 10 หลังจากกดเลือกวันที่แล้ว\relax }{figure.caption.42}{}}
\@writefile{lof}{\contentsline {figure}{\numberline {3.33}{\ignorespaces ตัวอย่างหน้ากรอกฟอร์มสำหรับฟอร์มประเภท Hemodialysis record หน้าที่ 11\relax }}{34}{figure.caption.43}\protected@file@percent }
\newlabel{fig:form8}{{3.33}{34}{ตัวอย่างหน้ากรอกฟอร์มสำหรับฟอร์มประเภท Hemodialysis record หน้าที่ 11\relax }{figure.caption.43}{}}
\@writefile{lof}{\contentsline {figure}{\numberline {3.34}{\ignorespaces ตัวอย่างข้อความยืนยันเมื่อเสร็จสิ้นการสร้างบันทึก\relax }}{35}{figure.caption.44}\protected@file@percent }
\newlabel{fig:form8_alert}{{3.34}{35}{ตัวอย่างข้อความยืนยันเมื่อเสร็จสิ้นการสร้างบันทึก\relax }{figure.caption.44}{}}
\@writefile{lof}{\contentsline {figure}{\numberline {3.35}{\ignorespaces ตัวอย่างของหน้าบันทึกที่ถูกลบ\relax }}{36}{figure.caption.45}\protected@file@percent }
\newlabel{fig:ReDeleted}{{3.35}{36}{ตัวอย่างของหน้าบันทึกที่ถูกลบ\relax }{figure.caption.45}{}}
\@writefile{lof}{\contentsline {figure}{\numberline {3.36}{\ignorespaces ตัวอย่างข้อความยืนยันการลบบันทึกอย่างถาวร\relax }}{37}{figure.caption.46}\protected@file@percent }
\newlabel{fig:per_delete}{{3.36}{37}{ตัวอย่างข้อความยืนยันการลบบันทึกอย่างถาวร\relax }{figure.caption.46}{}}
\@writefile{lof}{\contentsline {figure}{\numberline {3.37}{\ignorespaces ตัวอย่างข้อความยืนยันการกู้คืนบันทึก\relax }}{38}{figure.caption.47}\protected@file@percent }
\newlabel{fig:recover_this}{{3.37}{38}{ตัวอย่างข้อความยืนยันการกู้คืนบันทึก\relax }{figure.caption.47}{}}
\@writefile{lof}{\contentsline {figure}{\numberline {3.38}{\ignorespaces ตัวอย่างข้อความยืนยันการลบบันทึกทั้งหมดอย่างถาวร\relax }}{39}{figure.caption.48}\protected@file@percent }
\newlabel{fig:per_delete_all}{{3.38}{39}{ตัวอย่างข้อความยืนยันการลบบันทึกทั้งหมดอย่างถาวร\relax }{figure.caption.48}{}}
\@writefile{lof}{\contentsline {figure}{\numberline {3.39}{\ignorespaces ตัวอย่างข้อความยืนยันการกู้คืนบันทึกทั้งหมด\relax }}{39}{figure.caption.49}\protected@file@percent }
\newlabel{fig:recover_all}{{3.39}{39}{ตัวอย่างข้อความยืนยันการกู้คืนบันทึกทั้งหมด\relax }{figure.caption.49}{}}
\@writefile{lof}{\contentsline {figure}{\numberline {3.40}{\ignorespaces ตัวอย่างหน้าบัญชีผู้ใช้ของผู้ดูแลระบบ\relax }}{40}{figure.caption.50}\protected@file@percent }
\newlabel{fig:account_admin}{{3.40}{40}{ตัวอย่างหน้าบัญชีผู้ใช้ของผู้ดูแลระบบ\relax }{figure.caption.50}{}}
\@writefile{lof}{\contentsline {figure}{\numberline {3.41}{\ignorespaces ตัวอย่างหน้า administrator page\relax }}{41}{figure.caption.51}\protected@file@percent }
\newlabel{fig:admin_page_label}{{3.41}{41}{ตัวอย่างหน้า administrator page\relax }{figure.caption.51}{}}
\@writefile{lof}{\contentsline {figure}{\numberline {3.42}{\ignorespaces ตัวอย่างการเพิ่มผู้ใช้\relax }}{42}{figure.caption.52}\protected@file@percent }
\newlabel{fig:addUser}{{3.42}{42}{ตัวอย่างการเพิ่มผู้ใช้\relax }{figure.caption.52}{}}
\@writefile{lof}{\contentsline {figure}{\numberline {3.43}{\ignorespaces ตัวอย่างข้อความแจ้งเตือนเมื่อเพิ่มผู้ใช้สำเร็จ\relax }}{42}{figure.caption.53}\protected@file@percent }
\newlabel{fig:addUser_alert}{{3.43}{42}{ตัวอย่างข้อความแจ้งเตือนเมื่อเพิ่มผู้ใช้สำเร็จ\relax }{figure.caption.53}{}}
\@writefile{lof}{\contentsline {figure}{\numberline {3.44}{\ignorespaces ตัวอย่างการค้นหาผู้ใช้\relax }}{43}{figure.caption.54}\protected@file@percent }
\newlabel{fig:admin_search}{{3.44}{43}{ตัวอย่างการค้นหาผู้ใช้\relax }{figure.caption.54}{}}
\@writefile{lof}{\contentsline {figure}{\numberline {3.45}{\ignorespaces ตัวอย่างการแก้ไขข้อมูลของผู้ใช้\relax }}{44}{figure.caption.55}\protected@file@percent }
\newlabel{fig:updateUser}{{3.45}{44}{ตัวอย่างการแก้ไขข้อมูลของผู้ใช้\relax }{figure.caption.55}{}}
\@writefile{lof}{\contentsline {figure}{\numberline {3.46}{\ignorespaces ตัวอย่างข้อความแจ้งเตือนเมื่อแก้ไขข้อมูลของผู้ใช้สำเร็จ\relax }}{45}{figure.caption.56}\protected@file@percent }
\newlabel{fig:updateUser_alert}{{3.46}{45}{ตัวอย่างข้อความแจ้งเตือนเมื่อแก้ไขข้อมูลของผู้ใช้สำเร็จ\relax }{figure.caption.56}{}}
\@writefile{lof}{\contentsline {figure}{\numberline {3.47}{\ignorespaces ตัวอย่างข้อความแจ้งเตือนเมื่อแก้ไขข้อมูลของผู้ใช้ไม่สำเร็จ\relax }}{45}{figure.caption.57}\protected@file@percent }
\newlabel{fig:update_f}{{3.47}{45}{ตัวอย่างข้อความแจ้งเตือนเมื่อแก้ไขข้อมูลของผู้ใช้ไม่สำเร็จ\relax }{figure.caption.57}{}}
\@writefile{lof}{\contentsline {figure}{\numberline {3.48}{\ignorespaces ตัวอย่างข้อความแจ้งเตือนเมื่อลบผู้ใช้\relax }}{46}{figure.caption.58}\protected@file@percent }
\newlabel{fig:deleteUser}{{3.48}{46}{ตัวอย่างข้อความแจ้งเตือนเมื่อลบผู้ใช้\relax }{figure.caption.58}{}}
\@writefile{toc}{\contentsline {section}{\numberline {3.2}ออกแบบฐานข้อมูล}{47}{section.3.2}\protected@file@percent }
\@writefile{lof}{\contentsline {figure}{\numberline {3.49}{\ignorespaces ตัวอย่าง diagram ของตาราง users\relax }}{47}{figure.caption.59}\protected@file@percent }
\newlabel{fig:userdi}{{3.49}{47}{ตัวอย่าง diagram ของตาราง users\relax }{figure.caption.59}{}}
\@writefile{lof}{\contentsline {figure}{\numberline {3.50}{\ignorespaces ตัวอย่าง diagram ของตาราง records\relax }}{48}{figure.caption.60}\protected@file@percent }
\newlabel{fig:recorddi1}{{3.50}{48}{ตัวอย่าง diagram ของตาราง records\relax }{figure.caption.60}{}}
\@writefile{lof}{\contentsline {figure}{\numberline {3.51}{\ignorespaces ตัวอย่าง diagram ของตาราง records (ต่อ)\relax }}{48}{figure.caption.61}\protected@file@percent }
\newlabel{fig:recorddi2}{{3.51}{48}{ตัวอย่าง diagram ของตาราง records (ต่อ)\relax }{figure.caption.61}{}}
\@writefile{toc}{\contentsline {section}{\numberline {3.3}พัฒนาแอปพลิเคชัน}{48}{section.3.3}\protected@file@percent }
\@writefile{toc}{\addvspace {15\p@ }}
\@writefile{toc}{\contentsline {chapter}{\numberline {4}ผลการดำเนินงาน}{49}{chapter.4}\protected@file@percent }
\@writefile{lof}{\addvspace {10\p@ }}
\@writefile{lot}{\addvspace {10\p@ }}
\newlabel{result}{{4}{49}{ผลการดำเนินงาน}{chapter.4}{}}
\@writefile{toc}{\contentsline {section}{\numberline {4.1}การทำงานของแอปพลิเคชัน}{49}{section.4.1}\protected@file@percent }
\@writefile{lof}{\contentsline {figure}{\numberline {4.1}{\ignorespaces ตัวอย่างการเข้าสู่ระบบ\relax }}{50}{figure.caption.62}\protected@file@percent }
\newlabel{fig:howto_login}{{4.1}{50}{ตัวอย่างการเข้าสู่ระบบ\relax }{figure.caption.62}{}}
\@writefile{lof}{\contentsline {figure}{\numberline {4.2}{\ignorespaces ตัวอย่างการสร้างบันทึกของฟอร์ม Hemodialysis record\relax }}{50}{figure.caption.63}\protected@file@percent }
\newlabel{fig:howto_form1}{{4.2}{50}{ตัวอย่างการสร้างบันทึกของฟอร์ม Hemodialysis record\relax }{figure.caption.63}{}}
\@writefile{lof}{\contentsline {figure}{\numberline {4.3}{\ignorespaces ตัวอย่างการสร้างบันทึกของฟอร์ม Hemodialysis record (ต่อ)\relax }}{51}{figure.caption.64}\protected@file@percent }
\newlabel{fig:howto_form2}{{4.3}{51}{ตัวอย่างการสร้างบันทึกของฟอร์ม Hemodialysis record (ต่อ)\relax }{figure.caption.64}{}}
\@writefile{lof}{\contentsline {figure}{\numberline {4.4}{\ignorespaces ตัวอย่างการสร้างบันทึกของฟอร์ม Hemodialysis record (ต่อ)\relax }}{51}{figure.caption.65}\protected@file@percent }
\newlabel{fig:howto_form3}{{4.4}{51}{ตัวอย่างการสร้างบันทึกของฟอร์ม Hemodialysis record (ต่อ)\relax }{figure.caption.65}{}}
\@writefile{lof}{\contentsline {figure}{\numberline {4.5}{\ignorespaces ตัวอย่างการสร้างบันทึกของฟอร์ม Hemodialysis record (ต่อ)\relax }}{52}{figure.caption.66}\protected@file@percent }
\newlabel{fig:howto_form4}{{4.5}{52}{ตัวอย่างการสร้างบันทึกของฟอร์ม Hemodialysis record (ต่อ)\relax }{figure.caption.66}{}}
\@writefile{lof}{\contentsline {figure}{\numberline {4.6}{\ignorespaces ตัวอย่างการค้นหาและเปิดดูบันทึกโดยใช้ค่าเริ่มต้น\relax }}{53}{figure.caption.67}\protected@file@percent }
\newlabel{fig:howto_search_all}{{4.6}{53}{ตัวอย่างการค้นหาและเปิดดูบันทึกโดยใช้ค่าเริ่มต้น\relax }{figure.caption.67}{}}
\@writefile{lof}{\contentsline {figure}{\numberline {4.7}{\ignorespaces ตัวอย่างวิธีการค้นหาโดยใช้ฟังก์ชันการกรอง\relax }}{53}{figure.caption.68}\protected@file@percent }
\newlabel{fig:howto_search_specific}{{4.7}{53}{ตัวอย่างวิธีการค้นหาโดยใช้ฟังก์ชันการกรอง\relax }{figure.caption.68}{}}
\@writefile{lof}{\contentsline {figure}{\numberline {4.8}{\ignorespaces ตัวอย่างวิธีการจัดเรียงบันทึกโดยให้บันทึกที่เก่าที่สุดอยู่บนสุด (Date (old to new))\relax }}{54}{figure.caption.69}\protected@file@percent }
\newlabel{fig:howto_sort}{{4.8}{54}{ตัวอย่างวิธีการจัดเรียงบันทึกโดยให้บันทึกที่เก่าที่สุดอยู่บนสุด (Date (old to new))\relax }{figure.caption.69}{}}
\@writefile{lof}{\contentsline {figure}{\numberline {4.9}{\ignorespaces ตัวอย่างวิธีการลบและกู้คืนบันทึกจากหน้าหลัก\relax }}{55}{figure.caption.70}\protected@file@percent }
\newlabel{fig:howto_dandr}{{4.9}{55}{ตัวอย่างวิธีการลบและกู้คืนบันทึกจากหน้าหลัก\relax }{figure.caption.70}{}}
\@writefile{lof}{\contentsline {figure}{\numberline {4.10}{\ignorespaces ตัวอย่างวิธีการลบบันทึกอย่างถาวร\relax }}{55}{figure.caption.71}\protected@file@percent }
\newlabel{fig:howto_per_delete}{{4.10}{55}{ตัวอย่างวิธีการลบบันทึกอย่างถาวร\relax }{figure.caption.71}{}}
\@writefile{lof}{\contentsline {figure}{\numberline {4.11}{\ignorespaces ตัวอย่างวิธีการเข้าสู่หน้าการจัดการสำหรับผู้ดูแลระบบ\relax }}{56}{figure.caption.72}\protected@file@percent }
\newlabel{fig:goto_admin}{{4.11}{56}{ตัวอย่างวิธีการเข้าสู่หน้าการจัดการสำหรับผู้ดูแลระบบ\relax }{figure.caption.72}{}}
\@writefile{lof}{\contentsline {figure}{\numberline {4.12}{\ignorespaces การจำแนกองค์ประกอบต่างๆของการเพิ่มผู้ใช้\relax }}{57}{figure.caption.73}\protected@file@percent }
\newlabel{fig:howto_addUser}{{4.12}{57}{การจำแนกองค์ประกอบต่างๆของการเพิ่มผู้ใช้\relax }{figure.caption.73}{}}
\@writefile{lof}{\contentsline {figure}{\numberline {4.13}{\ignorespaces ตัวอย่างวิธีการเพิ่มผู้ใช้\relax }}{57}{figure.caption.74}\protected@file@percent }
\newlabel{fig:howto_add_user}{{4.13}{57}{ตัวอย่างวิธีการเพิ่มผู้ใช้\relax }{figure.caption.74}{}}
\@writefile{lof}{\contentsline {figure}{\numberline {4.14}{\ignorespaces ตัวอย่างวิธีการค้นหา แก้ไขข้อมูลและลบผู้ใช้\relax }}{58}{figure.caption.75}\protected@file@percent }
\newlabel{fig:howto_sud}{{4.14}{58}{ตัวอย่างวิธีการค้นหา แก้ไขข้อมูลและลบผู้ใช้\relax }{figure.caption.75}{}}
\@writefile{toc}{\addvspace {15\p@ }}
\@writefile{toc}{\contentsline {chapter}{\numberline {5}สรุปโครงงาน}{59}{chapter.5}\protected@file@percent }
\@writefile{lof}{\addvspace {10\p@ }}
\@writefile{lot}{\addvspace {10\p@ }}
\newlabel{conclusion}{{5}{59}{สรุปโครงงาน}{chapter.5}{}}
\@writefile{toc}{\contentsline {section}{\numberline {5.1}สรุปผลโครงงาน}{59}{section.5.1}\protected@file@percent }
\@writefile{toc}{\contentsline {section}{\numberline {5.2}อุปสรรคในการดำเนินงาน}{59}{section.5.2}\protected@file@percent }
\@writefile{toc}{\contentsline {section}{\numberline {5.3}การนำมาพัฒนาต่อในอนาคต}{59}{section.5.3}\protected@file@percent }
\bibstyle{plain}
\bibdata{refs}
\bibcite{Chuasuwan}{1}
\bibcite{Lee}{2}
\bibcite{Sumnak}{3}
\bibcite{Konkan}{4}
\@writefile{toc}{\addvspace {15\p@ }}
\@writefile{toc}{\contentsline {section}{รายการอ้างอิง}{61}{Item.151}\protected@file@percent }
\@writefile{toc}{\contentsline {section}{ภาคผนวก ก: วิธีการติดตั้งสำหรับผู้ดูแลระบบ}{63}{appendix.A}\protected@file@percent }
\@writefile{lof}{\addvspace {10\p@ }}
\@writefile{lot}{\addvspace {10\p@ }}
\newlabel{app1}{{ก}{63}{วิธีการติดตั้งสำหรับผู้ดูแลระบบ}{appendix.A}{}}
\@writefile{toc}{\contentsline {section}{\numberline {ก.1}ติดตั้งฐานข้อมูล MySQL}{63}{section.A.1}\protected@file@percent }
\@writefile{toc}{\contentsline {section}{\numberline {ก.2}สร้างฐานข้อมูล Hemodialysis record และสร้างตาราง}{63}{section.A.2}\protected@file@percent }
\@writefile{lof}{\contentsline {figure}{\numberline {ก.1}{\ignorespaces ตัวอย่างคำสั่งในภาษา SQL สำหรับการสร้างฐานข้อมูลชื่อ HDRecord\relax }}{63}{figure.caption.79}\protected@file@percent }
\newlabel{fig:createDatabase}{{ก.1}{63}{ตัวอย่างคำสั่งในภาษา SQL สำหรับการสร้างฐานข้อมูลชื่อ HDRecord\relax }{figure.caption.79}{}}
\@writefile{lof}{\contentsline {figure}{\numberline {ก.2}{\ignorespaces ตัวอย่างคำสั่งในภาษา SQL สำหรับการสร้างตาราง users\relax }}{64}{figure.caption.80}\protected@file@percent }
\newlabel{fig:createUsers}{{ก.2}{64}{ตัวอย่างคำสั่งในภาษา SQL สำหรับการสร้างตาราง users\relax }{figure.caption.80}{}}
\@writefile{lof}{\contentsline {figure}{\numberline {ก.3}{\ignorespaces ตัวอย่างคำสั่งในภาษา SQL สำหรับการสร้างตาราง records\relax }}{65}{figure.caption.81}\protected@file@percent }
\newlabel{fig:createRecords1}{{ก.3}{65}{ตัวอย่างคำสั่งในภาษา SQL สำหรับการสร้างตาราง records\relax }{figure.caption.81}{}}
\@writefile{lof}{\contentsline {figure}{\numberline {ก.4}{\ignorespaces ตัวอย่างคำสั่งในภาษา SQL สำหรับการสร้างตาราง records (ต่อ)\relax }}{66}{figure.caption.82}\protected@file@percent }
\newlabel{fig:createRecords2}{{ก.4}{66}{ตัวอย่างคำสั่งในภาษา SQL สำหรับการสร้างตาราง records (ต่อ)\relax }{figure.caption.82}{}}
\@writefile{lof}{\contentsline {figure}{\numberline {ก.5}{\ignorespaces ตัวอย่างคำสั่งในภาษา SQL สำหรับการสร้างตาราง records (ต่อ)\relax }}{67}{figure.caption.83}\protected@file@percent }
\newlabel{fig:createRecords3}{{ก.5}{67}{ตัวอย่างคำสั่งในภาษา SQL สำหรับการสร้างตาราง records (ต่อ)\relax }{figure.caption.83}{}}
\@writefile{lof}{\contentsline {figure}{\numberline {ก.6}{\ignorespaces ตัวอย่างคำสั่งในภาษา SQL สำหรับการสร้างตาราง records (ต่อ)\relax }}{68}{figure.caption.84}\protected@file@percent }
\newlabel{fig:createRecords4}{{ก.6}{68}{ตัวอย่างคำสั่งในภาษา SQL สำหรับการสร้างตาราง records (ต่อ)\relax }{figure.caption.84}{}}
\@writefile{lof}{\contentsline {figure}{\numberline {ก.7}{\ignorespaces ตัวอย่างคำสั่งในภาษา SQL สำหรับการสร้างตาราง records (ต่อ)\relax }}{69}{figure.caption.85}\protected@file@percent }
\newlabel{fig:createRecords5}{{ก.7}{69}{ตัวอย่างคำสั่งในภาษา SQL สำหรับการสร้างตาราง records (ต่อ)\relax }{figure.caption.85}{}}
\@writefile{toc}{\contentsline {section}{\numberline {ก.3}ติดตั้ง NodeJS และ ExpressJS}{70}{section.A.3}\protected@file@percent }
\@writefile{lof}{\contentsline {figure}{\numberline {ก.8}{\ignorespaces ตัวอย่างคำสั่งในการติดตั้ง NodeJS\relax }}{70}{figure.caption.86}\protected@file@percent }
\newlabel{fig:installNode}{{ก.8}{70}{ตัวอย่างคำสั่งในการติดตั้ง NodeJS\relax }{figure.caption.86}{}}
\@writefile{lof}{\contentsline {figure}{\numberline {ก.9}{\ignorespaces ตัวอย่างคำสั่งในการติดตั้ง ExpressJS\relax }}{70}{figure.caption.87}\protected@file@percent }
\newlabel{fig:installExpress}{{ก.9}{70}{ตัวอย่างคำสั่งในการติดตั้ง ExpressJS\relax }{figure.caption.87}{}}
\@writefile{toc}{\contentsline {section}{\numberline {ก.4}เชื่อมต่อกับฐานข้อมูล และรัน server ด้วย node}{70}{section.A.4}\protected@file@percent }
\@writefile{lof}{\contentsline {figure}{\numberline {ก.10}{\ignorespaces ตัวอย่างบรรทัดที่ 9 ในไฟล์ server.js\relax }}{70}{figure.caption.88}\protected@file@percent }
\newlabel{fig:config}{{ก.10}{70}{ตัวอย่างบรรทัดที่ 9 ในไฟล์ server.js\relax }{figure.caption.88}{}}
\@writefile{lof}{\contentsline {figure}{\numberline {ก.11}{\ignorespaces ตัวอย่างบรรทัดที่ 8 ในไฟล์ server.js\relax }}{71}{figure.caption.89}\protected@file@percent }
\newlabel{fig:port}{{ก.11}{71}{ตัวอย่างบรรทัดที่ 8 ในไฟล์ server.js\relax }{figure.caption.89}{}}
\@writefile{lof}{\contentsline {figure}{\numberline {ก.12}{\ignorespaces ตัวอย่างคำสั่งในการรัน server ด้วย node\relax }}{71}{figure.caption.90}\protected@file@percent }
\newlabel{fig:runserver}{{ก.12}{71}{ตัวอย่างคำสั่งในการรัน server ด้วย node\relax }{figure.caption.90}{}}
\ttl@finishall
